{
    "best_train_evaluation_report": {
        "acc": 0.9586484312148029,
        "precision": 0.9236028537455411,
        "recall": 1.0,
        "f1_score": 0.9602843455416473,
        "confusion_matrix": [
            [
                5702,
                514
            ],
            [
                0,
                6214
            ]
        ],
        "misclassified_inputs": {
            "NORMAL/1000_resized.jpeg": 0.9102285504341125,
            "NORMAL/1016_resized.jpeg": 0.9908678531646729,
            "NORMAL/1033_resized.jpeg": 0.653705894947052,
            "NORMAL/103_resized.jpeg": 0.8788936138153076,
            "NORMAL/1065_resized.jpeg": 0.7176564931869507,
            "NORMAL/122_resized.jpeg": 0.8439314961433411,
            "NORMAL/125_resized.jpeg": 0.5721654891967773,
            "NORMAL/135_resized.jpeg": 0.5043641328811646,
            "NORMAL/139_resized.jpeg": 0.7645412683486938,
            "NORMAL/159_resized.jpeg": 0.8779336810112,
            "NORMAL/162_resized.jpeg": 0.9438304901123047,
            "NORMAL/212_resized.jpeg": 0.7800938487052917,
            "NORMAL/218_resized.jpeg": 0.7966562509536743,
            "NORMAL/247_resized.jpeg": 0.9975307583808899,
            "NORMAL/253_resized.jpeg": 0.6049743294715881,
            "NORMAL/283_resized.jpeg": 0.7740429043769836,
            "NORMAL/290_resized.jpeg": 0.9772111177444458,
            "NORMAL/291_resized.jpeg": 0.9084054231643677,
            "NORMAL/32_resized.jpeg": 0.9988613128662109,
            "NORMAL/330_resized.jpeg": 0.53178471326828,
            "NORMAL/344_resized.jpeg": 0.775619626045227,
            "NORMAL/375_resized.jpeg": 0.8182991743087769,
            "NORMAL/382_resized.jpeg": 0.6723136305809021,
            "NORMAL/388_resized.jpeg": 0.7655957937240601,
            "NORMAL/38_resized.jpeg": 0.786462664604187,
            "NORMAL/393_resized.jpeg": 0.7422611713409424,
            "NORMAL/3_resized.jpeg": 0.9456712603569031,
            "NORMAL/417_resized.jpeg": 0.7395859360694885,
            "NORMAL/4234_resized.jpeg": 0.9227363467216492,
            "NORMAL/423_resized.jpeg": 0.8944224119186401,
            "NORMAL/4246_resized.jpeg": 0.736733615398407,
            "NORMAL/4297_resized.jpeg": 0.9981129169464111,
            "NORMAL/4319_resized.jpeg": 0.6918402910232544,
            "NORMAL/4345_resized.jpeg": 0.7566726803779602,
            "NORMAL/4349_resized.jpeg": 0.9570210576057434,
            "NORMAL/4373_resized.jpeg": 0.7025541067123413,
            "NORMAL/4374_resized.jpeg": 0.9018087387084961,
            "NORMAL/4375_resized.jpeg": 0.9701579809188843,
            "NORMAL/4387_resized.jpeg": 0.5507103204727173,
            "NORMAL/4405_resized.jpeg": 0.9233417510986328,
            "NORMAL/4415_resized.jpeg": 0.9977089166641235,
            "NORMAL/4416_resized.jpeg": 0.7988423109054565,
            "NORMAL/4418_resized.jpeg": 0.8549749255180359,
            "NORMAL/4465_resized.jpeg": 0.8781810998916626,
            "NORMAL/4514_resized.jpeg": 0.9979935884475708,
            "NORMAL/454_resized.jpeg": 0.9923094511032104,
            "NORMAL/4578_resized.jpeg": 0.6406919956207275,
            "NORMAL/4580_resized.jpeg": 0.8316298723220825,
            "NORMAL/45_resized.jpeg": 0.9515080451965332,
            "NORMAL/461_resized.jpeg": 0.9388214349746704,
            "NORMAL/4622_resized.jpeg": 0.602135181427002,
            "NORMAL/4626_resized.jpeg": 0.9998908042907715,
            "NORMAL/4664_resized.jpeg": 0.6372714042663574,
            "NORMAL/4693_resized.jpeg": 0.9703876376152039,
            "NORMAL/4712_resized.jpeg": 0.5569989681243896,
            "NORMAL/4716_resized.jpeg": 0.9184293746948242,
            "NORMAL/4740_resized.jpeg": 0.8875920176506042,
            "NORMAL/4744_resized.jpeg": 0.6863422393798828,
            "NORMAL/4753_resized.jpeg": 0.7535362839698792,
            "NORMAL/4762_resized.jpeg": 0.5445783138275146,
            "NORMAL/4791_resized.jpeg": 0.9771778583526611,
            "NORMAL/4795_resized.jpeg": 0.7200295925140381,
            "NORMAL/4830_resized.jpeg": 0.7703270316123962,
            "NORMAL/4835_resized.jpeg": 0.9886046648025513,
            "NORMAL/483_resized.jpeg": 0.9892925024032593,
            "NORMAL/486_resized.jpeg": 0.9325682520866394,
            "NORMAL/4893_resized.jpeg": 0.8457608819007874,
            "NORMAL/4911_resized.jpeg": 0.9155944585800171,
            "NORMAL/4912_resized.jpeg": 0.9904463291168213,
            "NORMAL/4922_resized.jpeg": 0.8223734498023987,
            "NORMAL/4936_resized.jpeg": 0.8806261420249939,
            "NORMAL/4946_resized.jpeg": 0.6974693536758423,
            "NORMAL/4951_resized.jpeg": 0.8059973120689392,
            "NORMAL/4958_resized.jpeg": 0.7441152334213257,
            "NORMAL/4961_resized.jpeg": 0.9329689145088196,
            "NORMAL/4999_resized.jpeg": 0.989159882068634,
            "NORMAL/49_resized.jpeg": 0.9917900562286377,
            "NORMAL/5031_resized.jpeg": 0.9329236745834351,
            "NORMAL/5052_resized.jpeg": 0.7443262338638306,
            "NORMAL/5091_resized.jpeg": 0.6062716245651245,
            "NORMAL/5134_resized.jpeg": 0.6823933720588684,
            "NORMAL/5139_resized.jpeg": 0.5490442514419556,
            "NORMAL/5158_resized.jpeg": 0.9953356385231018,
            "NORMAL/5161_resized.jpeg": 0.9021673202514648,
            "NORMAL/5162_resized.jpeg": 0.6469665169715881,
            "NORMAL/5179_resized.jpeg": 0.9167090058326721,
            "NORMAL/517_resized.jpeg": 0.5293589234352112,
            "NORMAL/5192_resized.jpeg": 0.9035742282867432,
            "NORMAL/519_resized.jpeg": 0.9039055705070496,
            "NORMAL/5202_resized.jpeg": 0.6110347509384155,
            "NORMAL/5250_resized.jpeg": 0.9601154923439026,
            "NORMAL/5266_resized.jpeg": 0.8824713230133057,
            "NORMAL/5268_resized.jpeg": 0.915429413318634,
            "NORMAL/5295_resized.jpeg": 0.8730446696281433,
            "NORMAL/5307_resized.jpeg": 0.8700410723686218,
            "NORMAL/5310_resized.jpeg": 0.923589825630188,
            "NORMAL/5314_resized.jpeg": 0.7725802063941956,
            "NORMAL/5317_resized.jpeg": 0.9638416767120361,
            "NORMAL/5322_resized.jpeg": 0.7248961329460144,
            "NORMAL/5327_resized.jpeg": 0.7901108264923096,
            "NORMAL/5350_resized.jpeg": 0.9994961023330688,
            "NORMAL/5386_resized.jpeg": 0.8107624650001526,
            "NORMAL/5397_resized.jpeg": 0.9795341491699219,
            "NORMAL/5408_resized.jpeg": 0.9920377731323242,
            "NORMAL/5416_resized.jpeg": 0.986068844795227,
            "NORMAL/5422_resized.jpeg": 0.9972590208053589,
            "NORMAL/5429_resized.jpeg": 0.9937548637390137,
            "NORMAL/5432_resized.jpeg": 0.7458034753799438,
            "NORMAL/5445_resized.jpeg": 0.8844751119613647,
            "NORMAL/5465_resized.jpeg": 0.806035578250885,
            "NORMAL/5477_resized.jpeg": 0.6331873536109924,
            "NORMAL/5494_resized.jpeg": 0.8814441561698914,
            "NORMAL/5504_resized.jpeg": 0.7120248079299927,
            "NORMAL/5514_resized.jpeg": 0.9984872341156006,
            "NORMAL/551_resized.jpeg": 0.8660789132118225,
            "NORMAL/5526_resized.jpeg": 0.7603265047073364,
            "NORMAL/5529_resized.jpeg": 0.8825279474258423,
            "NORMAL/555_resized.jpeg": 0.7016599178314209,
            "NORMAL/5565_resized.jpeg": 0.9134941697120667,
            "NORMAL/5568_resized.jpeg": 0.9068950414657593,
            "NORMAL/5611_resized.jpeg": 0.6565650105476379,
            "NORMAL/5636_resized.jpeg": 0.9986832737922668,
            "NORMAL/5678_resized.jpeg": 0.8439511060714722,
            "NORMAL/5686_resized.jpeg": 0.6749139428138733,
            "NORMAL/568_resized.jpeg": 0.7831038236618042,
            "NORMAL/5735_resized.jpeg": 0.7966375946998596,
            "NORMAL/573_resized.jpeg": 0.9941216111183167,
            "NORMAL/5741_resized.jpeg": 0.5292775630950928,
            "NORMAL/5760_resized.jpeg": 0.7711414098739624,
            "NORMAL/5790_resized.jpeg": 0.5909979939460754,
            "NORMAL/5816_resized.jpeg": 0.6339486837387085,
            "NORMAL/5834_resized.jpeg": 0.9875230193138123,
            "NORMAL/5868_resized.jpeg": 0.9934728741645813,
            "NORMAL/5874_resized.jpeg": 0.6261028051376343,
            "NORMAL/5930_resized.jpeg": 0.9558190107345581,
            "NORMAL/5935_resized.jpeg": 0.5987298488616943,
            "NORMAL/5955_resized.jpeg": 0.9892309308052063,
            "NORMAL/5961_resized.jpeg": 0.7235488295555115,
            "NORMAL/5963_resized.jpeg": 0.7997416257858276,
            "NORMAL/5977_resized.jpeg": 0.5737017393112183,
            "NORMAL/5981_resized.jpeg": 0.9646088480949402,
            "NORMAL/598_resized.jpeg": 0.8793636560440063,
            "NORMAL/5996_resized.jpeg": 0.9388258457183838,
            "NORMAL/5999_resized.jpeg": 0.5123327970504761,
            "NORMAL/6000_resized.jpeg": 0.6123411655426025,
            "NORMAL/6004_resized.jpeg": 0.8176572918891907,
            "NORMAL/6019_resized.jpeg": 0.8801448941230774,
            "NORMAL/6032_resized.jpeg": 0.7822187542915344,
            "NORMAL/6048_resized.jpeg": 0.9028027057647705,
            "NORMAL/6095_resized.jpeg": 0.8163266181945801,
            "NORMAL/6100_resized.jpeg": 0.5361816883087158,
            "NORMAL/6115_resized.jpeg": 0.6269019842147827,
            "NORMAL/6116_resized.jpeg": 0.9203850030899048,
            "NORMAL/6124_resized.jpeg": 0.9631973505020142,
            "NORMAL/6148_resized.jpeg": 0.5363120436668396,
            "NORMAL/6156_resized.jpeg": 0.9953756332397461,
            "NORMAL/6174_resized.jpeg": 0.8123827576637268,
            "NORMAL/6177_resized.jpeg": 0.941037118434906,
            "NORMAL/618_resized.jpeg": 0.6183281540870667,
            "NORMAL/62_resized.jpeg": 0.8053730726242065,
            "NORMAL/638_resized.jpeg": 0.944468080997467,
            "NORMAL/651_resized.jpeg": 0.9620299935340881,
            "NORMAL/654_resized.jpeg": 0.8562263250350952,
            "NORMAL/660_resized.jpeg": 0.8766847252845764,
            "NORMAL/675_resized.jpeg": 0.9717549085617065,
            "NORMAL/677_resized.jpeg": 0.7221883535385132,
            "NORMAL/678_resized.jpeg": 0.9978779554367065,
            "NORMAL/699_resized.jpeg": 0.9195991158485413,
            "NORMAL/69_resized.jpeg": 0.9209735989570618,
            "NORMAL/71_resized.jpeg": 0.9906520843505859,
            "NORMAL/723_resized.jpeg": 0.9995131492614746,
            "NORMAL/743_resized.jpeg": 0.6753481030464172,
            "NORMAL/762_resized.jpeg": 0.9470629096031189,
            "NORMAL/774_resized.jpeg": 0.9847403168678284,
            "NORMAL/777_resized.jpeg": 0.9990596175193787,
            "NORMAL/782_resized.jpeg": 0.9929656982421875,
            "NORMAL/786_resized.jpeg": 0.7351560592651367,
            "NORMAL/795_resized.jpeg": 0.7466563582420349,
            "NORMAL/803_resized.jpeg": 0.9347244501113892,
            "NORMAL/82_resized.jpeg": 0.9955001473426819,
            "NORMAL/837_resized.jpeg": 0.9228443503379822,
            "NORMAL/859_resized.jpeg": 0.6148185729980469,
            "NORMAL/907_resized.jpeg": 0.8552391529083252,
            "NORMAL/92_resized.jpeg": 0.9783506989479065,
            "NORMAL/930_resized.jpeg": 0.6548787355422974,
            "NORMAL/937_resized.jpeg": 0.5640271902084351,
            "NORMAL/948_resized.jpeg": 0.9608749151229858,
            "NORMAL/966_resized.jpeg": 0.9859366416931152,
            "NORMAL/972_resized.jpeg": 0.8783393502235413,
            "NORMAL/985_resized.jpeg": 0.6466977596282959,
            "NORMAL/988_resized.jpeg": 0.9308492541313171,
            "NORMAL/aug-1015-0.jpeg": 0.9942208528518677,
            "NORMAL/aug-1033-0.jpeg": 0.8237805366516113,
            "NORMAL/aug-110-0.jpeg": 0.9610038995742798,
            "NORMAL/aug-1105-0.jpeg": 0.5659664869308472,
            "NORMAL/aug-1111-0.jpeg": 0.9995924830436707,
            "NORMAL/aug-1116-0.jpeg": 0.9899308681488037,
            "NORMAL/aug-1124-0.jpeg": 0.720779299736023,
            "NORMAL/aug-114-0.jpeg": 0.8906456232070923,
            "NORMAL/aug-1144-0.jpeg": 0.9323341250419617,
            "NORMAL/aug-116-0.jpeg": 0.9289969205856323,
            "NORMAL/aug-1167-0.jpeg": 0.8806393146514893,
            "NORMAL/aug-1176-0.jpeg": 0.5959258079528809,
            "NORMAL/aug-1178-0.jpeg": 0.8733547925949097,
            "NORMAL/aug-1186-0.jpeg": 0.5160073041915894,
            "NORMAL/aug-120-0.jpeg": 0.9974709749221802,
            "NORMAL/aug-1205-0.jpeg": 0.9434993267059326,
            "NORMAL/aug-1220-0.jpeg": 0.8684225082397461,
            "NORMAL/aug-1243-0.jpeg": 0.9938766360282898,
            "NORMAL/aug-1246-0.jpeg": 0.5667239427566528,
            "NORMAL/aug-1250-0.jpeg": 0.9858799576759338,
            "NORMAL/aug-1265-0.jpeg": 0.9067928194999695,
            "NORMAL/aug-1276-0.jpeg": 0.9810949563980103,
            "NORMAL/aug-128-0.jpeg": 0.7999984622001648,
            "NORMAL/aug-1293-0.jpeg": 0.5819222927093506,
            "NORMAL/aug-1302-0.jpeg": 0.975376546382904,
            "NORMAL/aug-1311-0.jpeg": 0.9503623247146606,
            "NORMAL/aug-1320-0.jpeg": 0.8566860556602478,
            "NORMAL/aug-1323-0.jpeg": 0.6679028868675232,
            "NORMAL/aug-1324-0.jpeg": 0.9682031273841858,
            "NORMAL/aug-1336-0.jpeg": 0.856416642665863,
            "NORMAL/aug-1348-0.jpeg": 0.9974170923233032,
            "NORMAL/aug-1350-0.jpeg": 0.8144413828849792,
            "NORMAL/aug-1353-0.jpeg": 0.5812448859214783,
            "NORMAL/aug-1360-0.jpeg": 0.7190805077552795,
            "NORMAL/aug-1369-0.jpeg": 0.9856539368629456,
            "NORMAL/aug-1377-0.jpeg": 0.5910111665725708,
            "NORMAL/aug-1391-0.jpeg": 0.7734133005142212,
            "NORMAL/aug-1402-0.jpeg": 0.9519407153129578,
            "NORMAL/aug-1407-0.jpeg": 0.9954859614372253,
            "NORMAL/aug-1415-0.jpeg": 0.9977729916572571,
            "NORMAL/aug-1420-0.jpeg": 0.7311422824859619,
            "NORMAL/aug-1429-0.jpeg": 0.9250950217247009,
            "NORMAL/aug-1433-0.jpeg": 0.9598613977432251,
            "NORMAL/aug-1439-0.jpeg": 0.9695380330085754,
            "NORMAL/aug-1444-0.jpeg": 0.9286680221557617,
            "NORMAL/aug-1448-0.jpeg": 0.9927077889442444,
            "NORMAL/aug-1459-0.jpeg": 0.5899701714515686,
            "NORMAL/aug-1470-0.jpeg": 0.958197832107544,
            "NORMAL/aug-1471-0.jpeg": 0.9099927544593811,
            "NORMAL/aug-1484-0.jpeg": 0.9687419533729553,
            "NORMAL/aug-1485-0.jpeg": 0.9586488604545593,
            "NORMAL/aug-1488-0.jpeg": 0.6335821747779846,
            "NORMAL/aug-1495-0.jpeg": 0.6489540338516235,
            "NORMAL/aug-1497-0.jpeg": 0.9966926574707031,
            "NORMAL/aug-1501-0.jpeg": 0.873441755771637,
            "NORMAL/aug-1507-0.jpeg": 0.7418635487556458,
            "NORMAL/aug-1509-0.jpeg": 0.5292912721633911,
            "NORMAL/aug-1515-0.jpeg": 0.8358883261680603,
            "NORMAL/aug-1524-0.jpeg": 0.976253092288971,
            "NORMAL/aug-1541-0.jpeg": 0.998944103717804,
            "NORMAL/aug-1566-0.jpeg": 0.730283796787262,
            "NORMAL/aug-1568-0.jpeg": 0.9368838667869568,
            "NORMAL/aug-1569-0.jpeg": 0.7570818662643433,
            "NORMAL/aug-1576-0.jpeg": 0.8336056470870972,
            "NORMAL/aug-1577-0.jpeg": 0.9811278581619263,
            "NORMAL/aug-1595-0.jpeg": 0.9435343146324158,
            "NORMAL/aug-1599-0.jpeg": 0.6636629700660706,
            "NORMAL/aug-16-0.jpeg": 0.9735473990440369,
            "NORMAL/aug-1606-0.jpeg": 0.7551727294921875,
            "NORMAL/aug-1607-0.jpeg": 0.9729315638542175,
            "NORMAL/aug-1614-0.jpeg": 0.9987725615501404,
            "NORMAL/aug-1622-0.jpeg": 0.7200654745101929,
            "NORMAL/aug-1636-0.jpeg": 0.9758557081222534,
            "NORMAL/aug-1641-0.jpeg": 0.9798977971076965,
            "NORMAL/aug-1657-0.jpeg": 0.8427919745445251,
            "NORMAL/aug-1662-0.jpeg": 0.5693409442901611,
            "NORMAL/aug-1665-0.jpeg": 0.8166829347610474,
            "NORMAL/aug-1681-0.jpeg": 0.6346848607063293,
            "NORMAL/aug-1682-0.jpeg": 0.7357880473136902,
            "NORMAL/aug-1683-0.jpeg": 0.6045331358909607,
            "NORMAL/aug-1701-0.jpeg": 0.5930281281471252,
            "NORMAL/aug-1708-0.jpeg": 0.9914626479148865,
            "NORMAL/aug-1710-0.jpeg": 0.8371132612228394,
            "NORMAL/aug-1738-0.jpeg": 0.9669702649116516,
            "NORMAL/aug-1740-0.jpeg": 0.9407082796096802,
            "NORMAL/aug-1757-0.jpeg": 0.9141077995300293,
            "NORMAL/aug-1768-0.jpeg": 0.604938268661499,
            "NORMAL/aug-1798-0.jpeg": 0.963528573513031,
            "NORMAL/aug-1806-0.jpeg": 0.6032681465148926,
            "NORMAL/aug-1815-0.jpeg": 0.8620200753211975,
            "NORMAL/aug-182-0.jpeg": 0.814704954624176,
            "NORMAL/aug-1823-0.jpeg": 0.9963312745094299,
            "NORMAL/aug-1831-0.jpeg": 0.8046471476554871,
            "NORMAL/aug-1846-0.jpeg": 0.77001953125,
            "NORMAL/aug-1854-0.jpeg": 0.7930256724357605,
            "NORMAL/aug-1859-0.jpeg": 0.9666368365287781,
            "NORMAL/aug-1875-0.jpeg": 0.9111693501472473,
            "NORMAL/aug-1905-0.jpeg": 0.912943422794342,
            "NORMAL/aug-1923-0.jpeg": 0.7503126263618469,
            "NORMAL/aug-1924-0.jpeg": 0.9058167934417725,
            "NORMAL/aug-1930-0.jpeg": 0.9841285943984985,
            "NORMAL/aug-1939-0.jpeg": 0.9610604047775269,
            "NORMAL/aug-1940-0.jpeg": 0.5630793571472168,
            "NORMAL/aug-195-0.jpeg": 0.9943267703056335,
            "NORMAL/aug-1953-0.jpeg": 0.9032764434814453,
            "NORMAL/aug-1956-0.jpeg": 0.9931047558784485,
            "NORMAL/aug-1968-0.jpeg": 0.9251464605331421,
            "NORMAL/aug-1970-0.jpeg": 0.9042574167251587,
            "NORMAL/aug-1973-0.jpeg": 0.538761556148529,
            "NORMAL/aug-1977-0.jpeg": 0.5204179883003235,
            "NORMAL/aug-1982-0.jpeg": 0.9983748197555542,
            "NORMAL/aug-1999-0.jpeg": 0.5342957377433777,
            "NORMAL/aug-2005-0.jpeg": 0.5780214667320251,
            "NORMAL/aug-2026-0.jpeg": 0.9477147459983826,
            "NORMAL/aug-2030-0.jpeg": 0.7313448786735535,
            "NORMAL/aug-2034-0.jpeg": 0.5655134916305542,
            "NORMAL/aug-2036-0.jpeg": 0.6100793480873108,
            "NORMAL/aug-204-0.jpeg": 0.6928967833518982,
            "NORMAL/aug-2064-0.jpeg": 0.9332395792007446,
            "NORMAL/aug-2078-0.jpeg": 0.698183536529541,
            "NORMAL/aug-2086-0.jpeg": 0.9155588150024414,
            "NORMAL/aug-2093-0.jpeg": 0.9999183416366577,
            "NORMAL/aug-2097-0.jpeg": 0.777083158493042,
            "NORMAL/aug-2111-0.jpeg": 0.6313630938529968,
            "NORMAL/aug-2119-0.jpeg": 0.9402065873146057,
            "NORMAL/aug-2125-0.jpeg": 0.6838002800941467,
            "NORMAL/aug-2135-0.jpeg": 0.9511921405792236,
            "NORMAL/aug-2145-0.jpeg": 0.748949408531189,
            "NORMAL/aug-2161-0.jpeg": 0.972865879535675,
            "NORMAL/aug-2175-0.jpeg": 0.9530130624771118,
            "NORMAL/aug-2176-0.jpeg": 0.6521103382110596,
            "NORMAL/aug-2188-0.jpeg": 0.6877703666687012,
            "NORMAL/aug-220-0.jpeg": 0.543840229511261,
            "NORMAL/aug-2224-0.jpeg": 0.9133742451667786,
            "NORMAL/aug-2250-0.jpeg": 0.9213575720787048,
            "NORMAL/aug-2254-0.jpeg": 0.9664838314056396,
            "NORMAL/aug-2270-0.jpeg": 0.990638017654419,
            "NORMAL/aug-2299-0.jpeg": 0.9807496666908264,
            "NORMAL/aug-2336-0.jpeg": 0.8141586780548096,
            "NORMAL/aug-2342-0.jpeg": 0.8028481006622314,
            "NORMAL/aug-2359-0.jpeg": 0.7982481122016907,
            "NORMAL/aug-2361-0.jpeg": 0.5433732867240906,
            "NORMAL/aug-2365-0.jpeg": 0.9619064331054688,
            "NORMAL/aug-2367-0.jpeg": 0.8589666485786438,
            "NORMAL/aug-2371-0.jpeg": 0.9547019600868225,
            "NORMAL/aug-2392-0.jpeg": 0.9092143774032593,
            "NORMAL/aug-2406-0.jpeg": 0.9947367310523987,
            "NORMAL/aug-2418-0.jpeg": 0.982029139995575,
            "NORMAL/aug-2427-0.jpeg": 0.9974219799041748,
            "NORMAL/aug-2429-0.jpeg": 0.7797160744667053,
            "NORMAL/aug-2436-0.jpeg": 0.9486202597618103,
            "NORMAL/aug-2448-0.jpeg": 0.9993725419044495,
            "NORMAL/aug-245-0.jpeg": 0.9997941851615906,
            "NORMAL/aug-2457-0.jpeg": 0.9799162149429321,
            "NORMAL/aug-2458-0.jpeg": 0.776155948638916,
            "NORMAL/aug-2479-0.jpeg": 0.6150192618370056,
            "NORMAL/aug-248-0.jpeg": 0.5417177081108093,
            "NORMAL/aug-2489-0.jpeg": 0.9790305495262146,
            "NORMAL/aug-2495-0.jpeg": 0.5725093483924866,
            "NORMAL/aug-2496-0.jpeg": 0.7782310247421265,
            "NORMAL/aug-2505-0.jpeg": 0.9583749771118164,
            "NORMAL/aug-2506-0.jpeg": 0.9946361184120178,
            "NORMAL/aug-2519-0.jpeg": 0.5626963973045349,
            "NORMAL/aug-2534-0.jpeg": 0.7177874445915222,
            "NORMAL/aug-2543-0.jpeg": 0.9946540594100952,
            "NORMAL/aug-256-0.jpeg": 0.8599715828895569,
            "NORMAL/aug-2563-0.jpeg": 0.596942663192749,
            "NORMAL/aug-2574-0.jpeg": 0.9693530797958374,
            "NORMAL/aug-2579-0.jpeg": 0.7366185188293457,
            "NORMAL/aug-2585-0.jpeg": 0.7874045372009277,
            "NORMAL/aug-2587-0.jpeg": 0.9970852732658386,
            "NORMAL/aug-2590-0.jpeg": 0.8633727431297302,
            "NORMAL/aug-26-0.jpeg": 0.5938374400138855,
            "NORMAL/aug-2609-0.jpeg": 0.991356372833252,
            "NORMAL/aug-2613-0.jpeg": 0.7618927359580994,
            "NORMAL/aug-2617-0.jpeg": 0.9963755011558533,
            "NORMAL/aug-2653-0.jpeg": 0.6332013010978699,
            "NORMAL/aug-2655-0.jpeg": 0.6002475023269653,
            "NORMAL/aug-2660-0.jpeg": 0.9470263719558716,
            "NORMAL/aug-2667-0.jpeg": 0.9807929396629333,
            "NORMAL/aug-2675-0.jpeg": 0.9974051117897034,
            "NORMAL/aug-2677-0.jpeg": 0.582263708114624,
            "NORMAL/aug-2696-0.jpeg": 0.9770883321762085,
            "NORMAL/aug-27-0.jpeg": 0.6752400994300842,
            "NORMAL/aug-2702-0.jpeg": 0.9925832748413086,
            "NORMAL/aug-2718-0.jpeg": 0.9977777600288391,
            "NORMAL/aug-2728-0.jpeg": 0.9993765950202942,
            "NORMAL/aug-2729-0.jpeg": 0.9283618330955505,
            "NORMAL/aug-2730-0.jpeg": 0.9682607054710388,
            "NORMAL/aug-2734-0.jpeg": 0.7886578440666199,
            "NORMAL/aug-274-0.jpeg": 0.7375571727752686,
            "NORMAL/aug-2741-0.jpeg": 0.9952223896980286,
            "NORMAL/aug-2761-0.jpeg": 0.6908249855041504,
            "NORMAL/aug-2772-0.jpeg": 0.9877350926399231,
            "NORMAL/aug-2782-0.jpeg": 0.9491652846336365,
            "NORMAL/aug-2787-0.jpeg": 0.9655413627624512,
            "NORMAL/aug-2789-0.jpeg": 0.6615029573440552,
            "NORMAL/aug-2790-0.jpeg": 0.9546363353729248,
            "NORMAL/aug-2796-0.jpeg": 0.9710229635238647,
            "NORMAL/aug-2813-0.jpeg": 0.8583410978317261,
            "NORMAL/aug-2816-0.jpeg": 0.8241867423057556,
            "NORMAL/aug-2820-0.jpeg": 0.9323383569717407,
            "NORMAL/aug-2830-0.jpeg": 0.9989182949066162,
            "NORMAL/aug-2846-0.jpeg": 0.9594147205352783,
            "NORMAL/aug-2852-0.jpeg": 0.999985933303833,
            "NORMAL/aug-2865-0.jpeg": 0.9495077729225159,
            "NORMAL/aug-2866-0.jpeg": 0.7338209748268127,
            "NORMAL/aug-2867-0.jpeg": 0.8458510041236877,
            "NORMAL/aug-2884-0.jpeg": 0.6245760917663574,
            "NORMAL/aug-2894-0.jpeg": 0.9925975799560547,
            "NORMAL/aug-2908-0.jpeg": 0.9974637031555176,
            "NORMAL/aug-2914-0.jpeg": 0.898804783821106,
            "NORMAL/aug-2925-0.jpeg": 0.6084502935409546,
            "NORMAL/aug-2937-0.jpeg": 0.8496427536010742,
            "NORMAL/aug-2939-0.jpeg": 0.7292460203170776,
            "NORMAL/aug-2942-0.jpeg": 0.9989790916442871,
            "NORMAL/aug-2945-0.jpeg": 0.5296385288238525,
            "NORMAL/aug-2949-0.jpeg": 0.9995588660240173,
            "NORMAL/aug-2950-0.jpeg": 0.9921503067016602,
            "NORMAL/aug-2956-0.jpeg": 0.5357205867767334,
            "NORMAL/aug-2957-0.jpeg": 0.7403661012649536,
            "NORMAL/aug-2961-0.jpeg": 0.6207877397537231,
            "NORMAL/aug-2993-0.jpeg": 0.8689709901809692,
            "NORMAL/aug-2997-0.jpeg": 0.88896244764328,
            "NORMAL/aug-3001-0.jpeg": 0.9571675658226013,
            "NORMAL/aug-3002-0.jpeg": 0.7521367073059082,
            "NORMAL/aug-3004-0.jpeg": 0.9219180345535278,
            "NORMAL/aug-301-0.jpeg": 0.7440565824508667,
            "NORMAL/aug-3018-0.jpeg": 0.6255484819412231,
            "NORMAL/aug-302-0.jpeg": 0.9579373002052307,
            "NORMAL/aug-3024-0.jpeg": 0.8889572620391846,
            "NORMAL/aug-303-0.jpeg": 0.9968416690826416,
            "NORMAL/aug-3049-0.jpeg": 0.7463849186897278,
            "NORMAL/aug-3051-0.jpeg": 0.8313313722610474,
            "NORMAL/aug-3052-0.jpeg": 0.5172656178474426,
            "NORMAL/aug-3054-0.jpeg": 0.8427135348320007,
            "NORMAL/aug-3057-0.jpeg": 0.9457576870918274,
            "NORMAL/aug-3077-0.jpeg": 0.5408039689064026,
            "NORMAL/aug-308-0.jpeg": 0.783562421798706,
            "NORMAL/aug-3091-0.jpeg": 0.6011788249015808,
            "NORMAL/aug-310-0.jpeg": 0.6292080283164978,
            "NORMAL/aug-3100-0.jpeg": 0.549606442451477,
            "NORMAL/aug-333-0.jpeg": 0.9094630479812622,
            "NORMAL/aug-335-0.jpeg": 0.9887371063232422,
            "NORMAL/aug-340-0.jpeg": 0.5610092878341675,
            "NORMAL/aug-341-0.jpeg": 0.916966438293457,
            "NORMAL/aug-354-0.jpeg": 0.9645678400993347,
            "NORMAL/aug-360-0.jpeg": 0.5554415583610535,
            "NORMAL/aug-371-0.jpeg": 0.792896568775177,
            "NORMAL/aug-377-0.jpeg": 0.8813444972038269,
            "NORMAL/aug-391-0.jpeg": 0.7039378881454468,
            "NORMAL/aug-404-0.jpeg": 0.980747640132904,
            "NORMAL/aug-421-0.jpeg": 0.9817076921463013,
            "NORMAL/aug-423-0.jpeg": 0.9765406250953674,
            "NORMAL/aug-439-0.jpeg": 0.7488005757331848,
            "NORMAL/aug-442-0.jpeg": 0.9269902110099792,
            "NORMAL/aug-445-0.jpeg": 0.6520537734031677,
            "NORMAL/aug-449-0.jpeg": 0.841128408908844,
            "NORMAL/aug-457-0.jpeg": 0.8137977719306946,
            "NORMAL/aug-462-0.jpeg": 0.995519757270813,
            "NORMAL/aug-475-0.jpeg": 0.5846455097198486,
            "NORMAL/aug-483-0.jpeg": 0.7549515962600708,
            "NORMAL/aug-490-0.jpeg": 0.8038790225982666,
            "NORMAL/aug-500-0.jpeg": 0.5443565845489502,
            "NORMAL/aug-510-0.jpeg": 0.9974702596664429,
            "NORMAL/aug-523-0.jpeg": 0.9969700574874878,
            "NORMAL/aug-529-0.jpeg": 0.8390289545059204,
            "NORMAL/aug-530-0.jpeg": 0.878255307674408,
            "NORMAL/aug-531-0.jpeg": 0.7022832036018372,
            "NORMAL/aug-537-0.jpeg": 0.7037966847419739,
            "NORMAL/aug-544-0.jpeg": 0.5304020643234253,
            "NORMAL/aug-556-0.jpeg": 0.5898272395133972,
            "NORMAL/aug-557-0.jpeg": 0.533772349357605,
            "NORMAL/aug-56-0.jpeg": 0.5600929260253906,
            "NORMAL/aug-565-0.jpeg": 0.9761417508125305,
            "NORMAL/aug-573-0.jpeg": 0.9663403034210205,
            "NORMAL/aug-584-0.jpeg": 0.9352247714996338,
            "NORMAL/aug-594-0.jpeg": 0.5748283267021179,
            "NORMAL/aug-60-0.jpeg": 0.9904171228408813,
            "NORMAL/aug-606-0.jpeg": 0.9298042058944702,
            "NORMAL/aug-616-0.jpeg": 0.9426361918449402,
            "NORMAL/aug-633-0.jpeg": 0.9966807961463928,
            "NORMAL/aug-643-0.jpeg": 0.9668740630149841,
            "NORMAL/aug-645-0.jpeg": 0.9705040454864502,
            "NORMAL/aug-655-0.jpeg": 0.9022524952888489,
            "NORMAL/aug-670-0.jpeg": 0.9071971774101257,
            "NORMAL/aug-708-0.jpeg": 0.8248352408409119,
            "NORMAL/aug-713-0.jpeg": 0.8133899569511414,
            "NORMAL/aug-718-0.jpeg": 0.9610836505889893,
            "NORMAL/aug-719-0.jpeg": 0.7314932346343994,
            "NORMAL/aug-742-0.jpeg": 0.7536144852638245,
            "NORMAL/aug-744-0.jpeg": 0.9998278617858887,
            "NORMAL/aug-748-0.jpeg": 0.9204946160316467,
            "NORMAL/aug-754-0.jpeg": 0.9775020480155945,
            "NORMAL/aug-761-0.jpeg": 0.8762186169624329,
            "NORMAL/aug-80-0.jpeg": 0.9980741739273071,
            "NORMAL/aug-808-0.jpeg": 0.9686449766159058,
            "NORMAL/aug-821-0.jpeg": 0.59062659740448,
            "NORMAL/aug-844-0.jpeg": 0.5351536870002747,
            "NORMAL/aug-846-0.jpeg": 0.7540931105613708,
            "NORMAL/aug-849-0.jpeg": 0.8907175660133362,
            "NORMAL/aug-852-0.jpeg": 0.9795836806297302,
            "NORMAL/aug-874-0.jpeg": 0.70975661277771,
            "NORMAL/aug-878-0.jpeg": 0.9950087070465088,
            "NORMAL/aug-881-0.jpeg": 0.9836588501930237,
            "NORMAL/aug-886-0.jpeg": 0.6086249947547913,
            "NORMAL/aug-89-0.jpeg": 0.9768549203872681,
            "NORMAL/aug-892-0.jpeg": 0.9684246778488159,
            "NORMAL/aug-913-0.jpeg": 0.9914785027503967,
            "NORMAL/aug-918-0.jpeg": 0.511721134185791,
            "NORMAL/aug-920-0.jpeg": 0.9547976851463318,
            "NORMAL/aug-927-0.jpeg": 0.6638031601905823,
            "NORMAL/aug-933-0.jpeg": 0.5841914415359497,
            "NORMAL/aug-934-0.jpeg": 0.9170334339141846,
            "NORMAL/aug-942-0.jpeg": 0.7468013763427734,
            "NORMAL/aug-945-0.jpeg": 0.6364434361457825,
            "NORMAL/aug-946-0.jpeg": 0.8399130702018738,
            "NORMAL/aug-950-0.jpeg": 0.9320158958435059,
            "NORMAL/aug-953-0.jpeg": 0.6407155990600586,
            "NORMAL/aug-959-0.jpeg": 0.9039713144302368,
            "NORMAL/aug-989-0.jpeg": 0.9660892486572266,
            "NORMAL/aug-992-0.jpeg": 0.5535160899162292,
            "NORMAL/aug-994-0.jpeg": 0.9900385141372681
        }
    },
    "best_val_evaluation_report": {
        "acc": 0.9837320574162679,
        "precision": 0.9909443725743855,
        "recall": 0.9871134020618557,
        "f1_score": 0.989025177533893,
        "confusion_matrix": [
            [
                262,
                7
            ],
            [
                10,
                766
            ]
        ],
        "misclassified_inputs": {
            "NORMAL/IM-0684-0001_resized.jpeg": 0.9710601568222046,
            "NORMAL/NORMAL2-IM-0391-0001_resized.jpeg": 0.9709475040435791,
            "NORMAL/NORMAL2-IM-0435-0001_resized.jpeg": 0.7231570482254028,
            "NORMAL/NORMAL2-IM-0441-0001_resized.jpeg": 0.9812026023864746,
            "NORMAL/NORMAL2-IM-0651-0001_resized.jpeg": 0.877648651599884,
            "NORMAL/NORMAL2-IM-0718-0001_resized.jpeg": 0.9678940176963806,
            "NORMAL/NORMAL2-IM-0828-0001_resized.jpeg": 0.9742564558982849,
            "PNEUMONIA/person109_virus_203_resized.jpeg": 0.02294962853193283,
            "PNEUMONIA/person1175_virus_1981_resized.jpeg": 0.11828351020812988,
            "PNEUMONIA/person1331_virus_2299_resized.jpeg": 0.4302164316177368,
            "PNEUMONIA/person1461_virus_2510_resized.jpeg": 0.0006381164421327412,
            "PNEUMONIA/person1489_virus_2594_resized.jpeg": 0.0011234687408432364,
            "PNEUMONIA/person293_bacteria_1379_resized.jpeg": 0.328395277261734,
            "PNEUMONIA/person730_virus_1351_resized.jpeg": 5.119517300045118e-05,
            "PNEUMONIA/person788_virus_1419_resized.jpeg": 0.3282858729362488,
            "PNEUMONIA/person791_virus_1422_resized.jpeg": 1.6309548300341703e-05,
            "PNEUMONIA/person8_bacteria_37_resized.jpeg": 0.00010765935439849272
        }
    },
    "acc": [
        0.9127916268590757,
        0.9583266225919931,
        0.9714400595172412,
        0.9741753777091962,
        0.9765888936847616,
        0.9811745739136601,
        0.9827835849476552,
        0.9833467385985635,
        0.9851166502852068,
        0.9887369243444595,
        0.9880128698970461,
        0.9872888148742056,
        0.9901045837041743,
        0.9921158470650977,
        0.9921158472569067,
        0.9925180998235965,
        0.9925180996797397,
        0.9922767482931731,
        0.9931617040645664,
        0.9939662094856594,
        0.9943684621482536,
        0.9932421545587234,
        0.9950120664371758,
        0.9954947697377838,
        0.9951729676652511,
        0.9946902643166908,
        0.9960579235325489,
        0.9956556708220023,
        0.9968624289056897,
        0.996701527821471,
        0.9969428794477989,
        0.9965406266893002,
        0.9969428793998467,
        0.997023329941956,
        0.9976669342788304,
        0.9958970225442347,
        0.997506033242564,
        0.9969428794957511,
        0.9967015278694232,
        0.9973451321583454,
        0.9976669343267826,
        0.9983105386157047,
        0.9975060332905162,
        0.997023329941956,
        0.9983105386157047,
        0.9971842310261746,
        0.9975864837367211
    ],
    "val_acc": [
        0.8698564599575609,
        0.8468899567161451,
        0.9444976115340822,
        0.9607655517222208,
        0.9282296656421497,
        0.966507178744631,
        0.899521528818961,
        0.9330143540669856,
        0.975119622130143,
        0.9540669861022365,
        0.9550239189960169,
        0.899521528818961,
        0.9177033476281965,
        0.9588516770937796,
        0.9263157992842095,
        0.9473684213378213,
        0.9665071778890619,
        0.9684210525175031,
        0.9483253590798264,
        0.933014350929899,
        0.9693779951077329,
        0.9492822959662625,
        0.9760765590165791,
        0.964593298412396,
        0.9511961754429283,
        0.970334931994169,
        0.9837320663712241,
        0.9808612500081222,
        0.9722488123264039,
        0.9693779951077329,
        0.9808612500081222,
        0.9531100435120067,
        0.972248804911472,
        0.9770334959030151,
        0.9483253639280511,
        0.9789473819390438,
        0.9779904336450203,
        0.951196180291153,
        0.9636363606703909,
        0.977990438493245,
        0.9043062238031597,
        0.9559808712826962,
        0.9320574180361186,
        0.9540669918060303,
        0.9483253639280511,
        0.9655502410026259,
        0.9779904336450203
    ],
    "loss": [
        0.22211700717806937,
        0.11356948639006952,
        0.07948502921700674,
        0.0709270680959547,
        0.06280823728217734,
        0.05395294110099553,
        0.050567818222550485,
        0.045713885684487775,
        0.03996118724636309,
        0.032461583757451735,
        0.035527770347061484,
        0.032314199979104986,
        0.02841906347356403,
        0.023536306296196532,
        0.024401314206309303,
        0.021612231899719725,
        0.020421786561179277,
        0.022153812584692113,
        0.01881312084055836,
        0.01704725457314256,
        0.015806313417435883,
        0.018136359582868855,
        0.014455738401033282,
        0.011653045196362713,
        0.013324705246898022,
        0.014908890907875992,
        0.011677122292557327,
        0.012497466793822508,
        0.009329952516392934,
        0.01036068121603007,
        0.009872232883275258,
        0.010317391581446888,
        0.009434299731480722,
        0.01030759270714887,
        0.006973219383619271,
        0.011867777494394516,
        0.006522066511363745,
        0.00897291672769235,
        0.008622360221648088,
        0.00902110707625198,
        0.006336787750842773,
        0.005749944086789859,
        0.007850763526554203,
        0.008492517043763328,
        0.004799632348363478,
        0.006830859678337014,
        0.006902626254138368
    ],
    "val_loss": [
        0.377421041928303,
        0.49697419505624285,
        0.21842226856076224,
        0.1297814271381597,
        0.2512290336750893,
        0.10472265524014332,
        0.3583818953005267,
        0.2735715391102935,
        0.08640835790685489,
        0.17841093640960531,
        0.1778305045164159,
        0.42272297623088256,
        0.35795840716598565,
        0.178330902253477,
        0.2703173551301842,
        0.2354674730503179,
        0.1360785099454937,
        0.13917231712820072,
        0.23991675339044577,
        0.3364646907797421,
        0.12362050979830431,
        0.2341272309979504,
        0.11098279341504994,
        0.22838215452825286,
        0.2179380331810761,
        0.130907779844822,
        0.07540503637205127,
        0.09412573487442165,
        0.13053496934271042,
        0.14887709822282907,
        0.06943821680987461,
        0.26211471535803327,
        0.13855034654345097,
        0.09850275286074514,
        0.3412223248401433,
        0.07236275567746116,
        0.1132769559854842,
        0.28434576371487247,
        0.1645424462514807,
        0.09242326281207244,
        0.6055115116249409,
        0.3251851493780795,
        0.39060008928261064,
        0.21484212649841464,
        0.316576791449669,
        0.23764178226554394,
        0.1572256649573641
    ],
    "training_time": 139.18818776607515
}