{
    "best_train_evaluation_report": {
        "acc": 0.9942066301898937,
        "precision": 0.9885459751829462,
        "recall": 1.0,
        "f1_score": 0.99424,
        "confusion_matrix": [
            [
                3071,
                36
            ],
            [
                0,
                3107
            ]
        ],
        "misclassified_inputs": {
            "NORMAL/165.jpeg": 0.6128603219985962,
            "NORMAL/179.jpeg": 0.6153990030288696,
            "NORMAL/249.jpeg": 0.6143662333488464,
            "NORMAL/254.jpeg": 0.7182625532150269,
            "NORMAL/329.jpeg": 0.829578161239624,
            "NORMAL/4330.jpeg": 0.5020800828933716,
            "NORMAL/4429.jpeg": 0.6357370615005493,
            "NORMAL/4511.jpeg": 0.599386990070343,
            "NORMAL/4677.jpeg": 0.9180514812469482,
            "NORMAL/4768.jpeg": 0.7293329834938049,
            "NORMAL/478.jpeg": 0.9269897937774658,
            "NORMAL/4793.jpeg": 0.8572138547897339,
            "NORMAL/4812.jpeg": 0.8582413196563721,
            "NORMAL/4963.jpeg": 0.971569836139679,
            "NORMAL/4972.jpeg": 0.8343910574913025,
            "NORMAL/5003.jpeg": 0.6702117919921875,
            "NORMAL/5321.jpeg": 0.5065311789512634,
            "NORMAL/5408.jpeg": 0.8811566829681396,
            "NORMAL/555.jpeg": 0.7714061737060547,
            "NORMAL/5559.jpeg": 0.8788952827453613,
            "NORMAL/5565.jpeg": 0.5696681141853333,
            "NORMAL/5614.jpeg": 0.615373432636261,
            "NORMAL/599.jpeg": 0.9509479999542236,
            "NORMAL/6095.jpeg": 0.9143641591072083,
            "NORMAL/6174.jpeg": 0.9325308203697205,
            "NORMAL/633.jpeg": 0.7222897410392761,
            "NORMAL/652.jpeg": 0.9784834384918213,
            "NORMAL/654.jpeg": 0.7260207533836365,
            "NORMAL/692.jpeg": 0.5997627377510071,
            "NORMAL/735.jpeg": 0.8726341724395752,
            "NORMAL/84.jpeg": 0.5817689895629883,
            "NORMAL/884.jpeg": 0.7305126190185547,
            "NORMAL/910.jpeg": 0.9676034450531006,
            "NORMAL/948.jpeg": 0.7410963177680969,
            "NORMAL/990.jpeg": 0.8611031174659729,
            "NORMAL/999.jpeg": 0.6126696467399597
        }
    },
    "best_val_evaluation_report": {
        "acc": 0.9827751196172249,
        "precision": 0.9986842105263158,
        "recall": 0.9780927835051546,
        "f1_score": 0.9882812499999999,
        "confusion_matrix": [
            [
                268,
                1
            ],
            [
                17,
                759
            ]
        ],
        "misclassified_inputs": {
            "NORMAL/IM-0684-0001.jpeg": 0.6104405522346497,
            "PNEUMONIA/person109_virus_203.jpeg": 0.003108229488134384,
            "PNEUMONIA/person111_virus_212.jpeg": 0.028940783813595772,
            "PNEUMONIA/person1175_virus_1981.jpeg": 0.0008872332400642335,
            "PNEUMONIA/person1181_bacteria_3129.jpeg": 0.023600848391652107,
            "PNEUMONIA/person1461_virus_2510.jpeg": 0.00027821818366646767,
            "PNEUMONIA/person1489_virus_2594.jpeg": 0.0008023634436540306,
            "PNEUMONIA/person293_bacteria_1379.jpeg": 3.522053157212213e-05,
            "PNEUMONIA/person297_virus_614.jpeg": 0.29997703433036804,
            "PNEUMONIA/person317_bacteria_1473.jpeg": 0.019649988040328026,
            "PNEUMONIA/person322_bacteria_1494.jpeg": 0.4415203630924225,
            "PNEUMONIA/person463_virus_953.jpeg": 0.04284258186817169,
            "PNEUMONIA/person558_bacteria_2328.jpeg": 0.29126080870628357,
            "PNEUMONIA/person618_bacteria_2489.jpeg": 0.2875881791114807,
            "PNEUMONIA/person730_virus_1351.jpeg": 0.00016145079280249774,
            "PNEUMONIA/person788_virus_1419.jpeg": 0.0008474651840515435,
            "PNEUMONIA/person791_virus_1422.jpeg": 0.00046371729695238173,
            "PNEUMONIA/person8_bacteria_37.jpeg": 0.001884176512248814
        }
    },
    "acc": [
        0.9007080718850952,
        0.955101378254849,
        0.9668490447374951,
        0.9695848029719544,
        0.9745735390837797,
        0.9755391005653256,
        0.9777920787304515,
        0.9794013482564355,
        0.98326359539121,
        0.9813324716607589,
        0.9829417412442949,
        0.9877695501867428,
        0.9880914036622184,
        0.9863212075807445,
        0.9903443813477446,
        0.9880914040458981,
        0.9893788199621187,
        0.9909880894497348,
        0.9921145781965781,
        0.9919536514108803,
        0.9929192129883461,
        0.9909880896415747,
        0.9934019940168788,
        0.9929192131801859,
        0.9942066288086467,
        0.9943675559780243,
        0.9930801399658836,
        0.9956549718942449,
        0.9927582862985683,
        0.9946894099330994,
        0.9958158987758625,
        0.9946894097412595,
        0.9956549716064851,
        0.9979079492920113,
        0.9943675557861844,
        0.995654971702405,
        0.9969423875227057,
        0.9964596065900929,
        0.9953331177473298,
        0.9959768255615603,
        0.9962986796125554,
        0.9959768255615603,
        0.9954940448207874,
        0.9966205334717106,
        0.9964596065900929,
        0.9962986796125554,
        0.9974251684553185,
        0.9977470223144738,
        0.9967814604492482,
        0.9966205337594705,
        0.997264241381861,
        0.9979079492920113,
        0.9975860954328561,
        0.9988735111572369,
        0.9971033144043234,
        0.9958158986799426,
        0.9969423874267858
    ],
    "val_acc": [
        0.8612440239869806,
        0.8928229714694776,
        0.9157894690070997,
        0.9521531171775891,
        0.9234449689468128,
        0.8880382804779344,
        0.9052631615451648,
        0.9473684253304769,
        0.8842105272283964,
        0.9244019172408364,
        0.9043062246587288,
        0.9674641090717042,
        0.9559808638677643,
        0.9330143549225547,
        0.9282296599383559,
        0.9607655557148764,
        0.9531100500713695,
        0.9377990362176485,
        0.943540672936508,
        0.938755984511672,
        0.9521531123293644,
        0.9732057540610647,
        0.9502392377009232,
        0.9521531114737953,
        0.9712918737288297,
        0.980861255711916,
        0.9674641204792918,
        0.9626794303433176,
        0.970334931994169,
        0.9349282238472021,
        0.945454553268743,
        0.9674641204792918,
        0.9511961820022912,
        0.9483253647836202,
        0.9521531114737953,
        0.9511961648909099,
        0.9827751294847881,
        0.9521531180331582,
        0.9129186574922225,
        0.9435406680882833,
        0.9550239229886726,
        0.9703349368423937,
        0.9693779885483701,
        0.9521531123293644,
        0.9406698508696123,
        0.9444976098229441,
        0.9234449763617447,
        0.9368420976200743,
        0.933971286960766,
        0.9559808655789024,
        0.9167464173011233,
        0.9444975935671318,
        0.9511961688835655,
        0.9320574188916877,
        0.9588516770937796,
        0.9617224926013125,
        0.9607655508666517
    ],
    "loss": [
        0.24308114794436944,
        0.12128797695109646,
        0.09455991815543327,
        0.08146904511210105,
        0.07017129490550744,
        0.06591859261592532,
        0.05598758546715729,
        0.057837934087710346,
        0.04814622550040541,
        0.05268365877625795,
        0.04004845219875374,
        0.03805453586288832,
        0.03397744786563315,
        0.035755084419636714,
        0.029965370793781147,
        0.030592222063599562,
        0.029399526600581618,
        0.026941415104454962,
        0.021454175296070382,
        0.025584722127438776,
        0.021739935580691466,
        0.021168879936335115,
        0.018867665855707066,
        0.019103861611971414,
        0.016977483038242355,
        0.01495800962117577,
        0.018317172183185605,
        0.013033275715603141,
        0.016986580414655526,
        0.015056933167421833,
        0.011828392457340344,
        0.01406054350855972,
        0.013714725965460788,
        0.008586007229989815,
        0.013845469672174529,
        0.014364090684128148,
        0.009564566147587918,
        0.00870776533135302,
        0.01211512461762277,
        0.010665752179156478,
        0.007330295667995143,
        0.010335900731360759,
        0.01115602771928618,
        0.011610662983327105,
        0.00902485607526166,
        0.009923378487617443,
        0.007472120136438455,
        0.004925977810871149,
        0.008489416841347621,
        0.010520342219259024,
        0.008089478235167731,
        0.006879687036952888,
        0.008618186911228164,
        0.0034867671994327754,
        0.006742052421816707,
        0.011584898174197163,
        0.007655598357683895
    ],
    "val_loss": [
        0.37200372134954734,
        0.32940504212672134,
        0.24765884426631854,
        0.153434919090897,
        0.22742751507092998,
        0.43576093106452624,
        0.3773759436168659,
        0.20138203471639465,
        0.426209148935557,
        0.28554810009173753,
        0.3822949197249566,
        0.11299325640282135,
        0.18486612005316336,
        0.28717397794775823,
        0.30394594237531714,
        0.17151926628633682,
        0.19763055239264066,
        0.2755221088198108,
        0.30461776851396927,
        0.2605824343870663,
        0.2456389567734523,
        0.09079938478830257,
        0.26432382232689816,
        0.2076975559214471,
        0.11559455149749107,
        0.07327279650996679,
        0.12156983963704031,
        0.18210549562608708,
        0.12397821754151421,
        0.3178904289863032,
        0.30992345036503555,
        0.14057238124289803,
        0.23336036466855115,
        0.26170474262663884,
        0.23868252433501974,
        0.22734048769334592,
        0.088333171172932,
        0.27810355683938753,
        0.5062550281606413,
        0.31663566504057794,
        0.26332574521958824,
        0.14422932102174485,
        0.18102237322181755,
        0.22885213127419904,
        0.35357703164544074,
        0.29490637574811024,
        0.406339928938616,
        0.40932550503005055,
        0.39673413530426166,
        0.22920683270537914,
        0.46966614619392033,
        0.3300809669662241,
        0.19901114972765027,
        0.48388467644838246,
        0.2570877518215491,
        0.19090656453843177,
        0.2274052155707292
    ],
    "training_time": 76.55640103419621
}